{
    "Latin":"Ave María, grátia plena, Dóminus tecum. Benedícta tu in muliéribus, et benedíctus fructus ventris tui, Iesus. Sancta María, Mater Dei, ora pro nobis peccatóribus, nunc, et in hora mortis nostræ. Amen.",
    "English":"Hail Mary, full of grace, the Lord is with thee. Blessed art thou amongst women and blessed is the fruit of thy womb, Jesus. Holy Mary, Mother of God, pray for us sinners, now, and in the hour of our death. Amen. ",
    "AudioFile":"AveMaria.ogg",
    "EnglishName":"Hail Mary",
    "LatinName":"Ave Maria",
    "Groups":["Basic", "Rosary", "Marian"]
}
