<svg class="thumb" width="1000" height="1000" viewBox="0,0,600,600" xmlns="http://www.w3.org/2000/svg" xmlns:inkscape="http://www.inkscape.org/namespaces/inkscape" xmlns:sodipodi="http://sodipodi.sourceforge.net/DTD/sodipodi-0.dtd" xmlns:xlink="http://www.w3.org/1999/xlink" xmlns:ns1="http://www.inkscape.org/namespaces/inkscape" xmlns:sketch="http://www.bohemiancoding.com/sketch/ns">
  <defs></defs>
  <g transform="matrix(0.8836,0,0,0.8836,-77.0354,135.5431)">
    <g transform="matrix(3.1246,0,0,3.1246,129.9496,228.0086)">
      <svg width="92.77199999999999" height="48.72499999999998" viewBox="3.878000000000002,55.227000000000004,92.77199999999999,48.72499999999998">
        <defs>
          <linearGradient x1="0" y1="0.5" x2="1" y2="0.5" id="linearGradientSkjj4fqgb4">
            <stop offset="0%" stop-color="#e5d80e"></stop>
            <stop offset="100%" stop-color="#cf8723"></stop>
          </linearGradient>
        </defs>
        <g>
          <path d="M11.097,60.229c-0.183,0.114-0.378,0.199-0.587,0.253c-0.264,0.068-0.534,0.083-0.812,0.045   c-0.274-0.039-0.529-0.128-0.764-0.266c-0.02-0.011-0.037-0.022-0.056-0.034L11.097,60.229L11.097,60.229z M13.911,60.229   c0.022,0.007,0.046,0.017,0.069,0.028c0.247,0.111,0.466,0.271,0.654,0.474c0.192,0.205,0.337,0.436,0.434,0.691   c0.094,0.255,0.136,0.523,0.126,0.802c-0.011,0.281-0.072,0.544-0.184,0.791c-0.112,0.246-0.272,0.467-0.477,0.658   c-0.203,0.188-0.432,0.33-0.687,0.426s-0.521,0.138-0.803,0.128c-0.277-0.01-0.539-0.07-0.786-0.184   c-0.25-0.113-0.47-0.271-0.66-0.474c-0.189-0.204-0.333-0.434-0.427-0.687c-0.096-0.255-0.139-0.524-0.133-0.808   c0.011-0.279,0.072-0.543,0.185-0.791c0.113-0.247,0.271-0.465,0.475-0.654c0.185-0.173,0.391-0.307,0.617-0.401H13.911   L13.911,60.229z M60.975,60.229c-0.029,0.209-0.09,0.408-0.18,0.597c-0.117,0.247-0.279,0.463-0.486,0.649   c-0.209,0.187-0.438,0.326-0.693,0.417s-0.525,0.129-0.809,0.117c-0.281-0.015-0.543-0.081-0.789-0.197   c-0.244-0.117-0.459-0.279-0.646-0.486c-0.186-0.207-0.326-0.44-0.416-0.695c-0.047-0.132-0.078-0.266-0.098-0.403L60.975,60.229   L60.975,60.229z M54.893,70.347c-0.277-0.033-0.535-0.117-0.771-0.25c-0.234-0.135-0.439-0.311-0.613-0.533   c-0.172-0.219-0.295-0.46-0.369-0.726c-0.072-0.262-0.092-0.529-0.057-0.806c0.033-0.28,0.117-0.539,0.252-0.776   s0.312-0.44,0.531-0.611c0.223-0.173,0.465-0.295,0.725-0.368c0.262-0.072,0.531-0.092,0.811-0.058   c0.275,0.034,0.531,0.117,0.768,0.252c0.238,0.133,0.441,0.312,0.615,0.53c0.17,0.22,0.291,0.461,0.363,0.724   c0.074,0.263,0.094,0.533,0.061,0.81c-0.033,0.277-0.117,0.533-0.252,0.768c-0.133,0.236-0.311,0.444-0.531,0.62   c-0.221,0.172-0.465,0.295-0.725,0.368C55.438,70.361,55.168,70.382,54.893,70.347L54.893,70.347z M55.451,65.623   c-0.254-0.115-0.477-0.27-0.662-0.467c-0.188-0.195-0.33-0.426-0.434-0.688c-0.098-0.259-0.146-0.527-0.139-0.8   c0.006-0.272,0.066-0.535,0.18-0.788c0.115-0.257,0.271-0.481,0.469-0.671c0.199-0.187,0.428-0.329,0.688-0.429   c0.264-0.101,0.531-0.146,0.799-0.14c0.273,0.008,0.537,0.068,0.793,0.182c0.252,0.112,0.473,0.269,0.66,0.465   c0.188,0.198,0.332,0.427,0.432,0.689c0.1,0.259,0.146,0.524,0.141,0.796c-0.008,0.274-0.068,0.538-0.18,0.793   c-0.113,0.254-0.27,0.476-0.467,0.66c-0.197,0.187-0.426,0.333-0.691,0.438c-0.26,0.1-0.527,0.147-0.799,0.14   C55.967,65.795,55.707,65.735,55.451,65.623L55.451,65.623z M15.027,64.144c0.172-0.22,0.377-0.396,0.612-0.531   c0.235-0.131,0.494-0.216,0.772-0.25c0.276-0.035,0.546-0.017,0.811,0.057c0.263,0.073,0.503,0.194,0.722,0.365   c0.222,0.174,0.4,0.379,0.536,0.617c0.133,0.237,0.216,0.494,0.25,0.771c0.033,0.28,0.014,0.549-0.059,0.811   s-0.195,0.502-0.367,0.723c-0.171,0.22-0.375,0.396-0.611,0.53c-0.235,0.133-0.493,0.218-0.772,0.251   c-0.275,0.035-0.544,0.015-0.807-0.057c-0.264-0.073-0.506-0.195-0.725-0.366c-0.221-0.173-0.396-0.377-0.529-0.611   c-0.134-0.236-0.22-0.495-0.256-0.776c-0.035-0.278-0.016-0.548,0.057-0.811C14.734,64.604,14.856,64.363,15.027,64.144   L15.027,64.144z M18.847,67.074c0.145-0.239,0.325-0.44,0.544-0.602c0.217-0.161,0.462-0.275,0.735-0.345   c0.27-0.067,0.541-0.08,0.812-0.041c0.27,0.04,0.522,0.132,0.761,0.275c0.241,0.144,0.444,0.325,0.606,0.546   c0.161,0.22,0.275,0.465,0.343,0.734c0.066,0.273,0.08,0.544,0.041,0.811c-0.04,0.271-0.132,0.523-0.276,0.765   c-0.144,0.237-0.324,0.438-0.542,0.599c-0.219,0.162-0.464,0.276-0.736,0.345c-0.269,0.067-0.538,0.08-0.808,0.04   c-0.271-0.04-0.526-0.131-0.765-0.273c-0.239-0.144-0.439-0.324-0.6-0.541c-0.161-0.221-0.278-0.466-0.349-0.74   c-0.068-0.272-0.082-0.543-0.042-0.811C18.613,67.565,18.705,67.312,18.847,67.074L18.847,67.074z M23.038,69.501   c0.104-0.26,0.252-0.486,0.442-0.681c0.19-0.191,0.414-0.344,0.673-0.454c0.256-0.109,0.521-0.164,0.795-0.168   c0.271-0.002,0.536,0.048,0.794,0.152c0.261,0.104,0.489,0.253,0.686,0.445c0.193,0.191,0.345,0.417,0.452,0.671   c0.109,0.261,0.165,0.525,0.169,0.795c0.002,0.271-0.05,0.538-0.154,0.798c-0.104,0.256-0.251,0.482-0.441,0.677   c-0.191,0.193-0.415,0.346-0.674,0.454c-0.255,0.109-0.52,0.165-0.791,0.167c-0.274,0.004-0.54-0.047-0.798-0.151   c-0.259-0.104-0.484-0.252-0.677-0.441c-0.194-0.189-0.348-0.415-0.461-0.674c-0.109-0.26-0.165-0.524-0.168-0.796   C22.882,70.023,22.934,69.758,23.038,69.501L23.038,69.501z M27.499,71.296c0.113-0.255,0.27-0.477,0.466-0.663   c0.197-0.187,0.426-0.329,0.688-0.433c0.26-0.099,0.526-0.146,0.801-0.14c0.271,0.007,0.534,0.067,0.788,0.18   c0.257,0.115,0.48,0.271,0.669,0.47c0.187,0.198,0.33,0.427,0.43,0.687c0.1,0.265,0.146,0.53,0.139,0.801   c-0.007,0.271-0.066,0.535-0.182,0.791c-0.112,0.253-0.268,0.473-0.464,0.661c-0.197,0.188-0.427,0.331-0.689,0.432   c-0.258,0.099-0.524,0.146-0.796,0.14c-0.274-0.007-0.538-0.067-0.792-0.18c-0.256-0.113-0.476-0.27-0.662-0.465   c-0.188-0.197-0.332-0.428-0.437-0.691c-0.101-0.262-0.147-0.528-0.14-0.8C27.326,71.812,27.385,71.551,27.499,71.296   L27.499,71.296z M31.902,73.233c0.128-0.249,0.294-0.462,0.501-0.64c0.206-0.175,0.442-0.305,0.71-0.395   c0.264-0.085,0.533-0.118,0.807-0.097c0.271,0.021,0.53,0.095,0.777,0.221c0.251,0.128,0.466,0.296,0.645,0.503   c0.176,0.209,0.306,0.444,0.392,0.709c0.086,0.268,0.119,0.538,0.098,0.807c-0.021,0.271-0.096,0.53-0.222,0.781   c-0.127,0.246-0.293,0.458-0.5,0.635c-0.206,0.177-0.442,0.309-0.71,0.396c-0.264,0.085-0.531,0.117-0.803,0.097   c-0.273-0.021-0.534-0.095-0.781-0.22c-0.249-0.127-0.461-0.294-0.637-0.499c-0.176-0.206-0.31-0.445-0.399-0.713   c-0.087-0.268-0.119-0.536-0.098-0.809C31.702,73.741,31.776,73.479,31.902,73.233L31.902,73.233z M36.171,75.435   c0.14-0.243,0.316-0.447,0.533-0.612c0.214-0.164,0.457-0.283,0.729-0.357c0.269-0.071,0.539-0.091,0.811-0.054   c0.27,0.035,0.524,0.122,0.766,0.26c0.243,0.143,0.449,0.319,0.615,0.537c0.165,0.217,0.284,0.459,0.355,0.728   c0.072,0.273,0.09,0.542,0.056,0.812c-0.035,0.269-0.124,0.525-0.264,0.768c-0.139,0.239-0.315,0.442-0.531,0.608   s-0.459,0.284-0.729,0.357c-0.269,0.072-0.537,0.091-0.808,0.055c-0.271-0.036-0.528-0.123-0.769-0.261   c-0.241-0.141-0.444-0.317-0.609-0.532c-0.165-0.216-0.286-0.459-0.361-0.732c-0.073-0.271-0.091-0.541-0.056-0.81   C35.945,75.93,36.032,75.675,36.171,75.435L36.171,75.435z M64.984,93.388l3.279-5.916l-6.975-3.865l0.709-1.278   c-0.045,0.016-0.092,0.029-0.139,0.042c-0.268,0.072-0.537,0.09-0.807,0.054c-0.271-0.035-0.527-0.12-0.77-0.26   c-0.24-0.139-0.443-0.317-0.609-0.531c-0.164-0.215-0.285-0.461-0.361-0.733c-0.072-0.271-0.092-0.54-0.057-0.812   c0.037-0.269,0.123-0.523,0.264-0.764c0.139-0.241,0.318-0.445,0.533-0.611c0.213-0.164,0.457-0.284,0.729-0.357   c0.268-0.072,0.539-0.091,0.812-0.057c0.268,0.037,0.523,0.124,0.764,0.263c0.244,0.141,0.449,0.32,0.617,0.535   c0.164,0.217,0.283,0.46,0.354,0.729l0.018,0.071l0.623-1.122l6.973,3.865l3.279-5.915l4.955,2.747l-3.279,5.914l15.754,8.731   l-2.678,4.834L73.219,90.22l-3.279,5.915L64.984,93.388L64.984,93.388z M40.858,77.585c0.141-0.242,0.318-0.445,0.533-0.61   s0.458-0.283,0.73-0.357c0.268-0.072,0.538-0.092,0.81-0.056c0.271,0.036,0.525,0.122,0.766,0.262   c0.244,0.141,0.449,0.318,0.616,0.535c0.165,0.218,0.283,0.461,0.355,0.729c0.072,0.272,0.09,0.541,0.055,0.811   c-0.035,0.269-0.122,0.524-0.263,0.767c-0.139,0.239-0.315,0.442-0.531,0.608s-0.459,0.286-0.73,0.358   c-0.269,0.072-0.537,0.091-0.807,0.055c-0.271-0.034-0.528-0.122-0.769-0.261c-0.242-0.141-0.444-0.318-0.609-0.532   c-0.165-0.216-0.286-0.46-0.361-0.732c-0.073-0.271-0.092-0.541-0.056-0.811C40.632,78.081,40.72,77.826,40.858,77.585   L40.858,77.585z M45.375,79.381c0.14-0.242,0.317-0.446,0.533-0.611c0.214-0.164,0.457-0.284,0.729-0.358   c0.269-0.071,0.538-0.091,0.811-0.055c0.269,0.035,0.524,0.123,0.765,0.261c0.244,0.142,0.449,0.32,0.616,0.537   c0.165,0.216,0.284,0.46,0.356,0.728c0.07,0.273,0.09,0.544,0.054,0.811c-0.034,0.27-0.122,0.526-0.263,0.768   c-0.139,0.24-0.316,0.445-0.532,0.609c-0.214,0.166-0.457,0.284-0.729,0.357c-0.268,0.072-0.536,0.09-0.806,0.054   c-0.272-0.034-0.528-0.121-0.77-0.26c-0.241-0.141-0.445-0.317-0.609-0.532c-0.165-0.215-0.286-0.459-0.362-0.731   c-0.072-0.271-0.091-0.543-0.056-0.812C45.149,79.876,45.237,79.621,45.375,79.381L45.375,79.381z M56.666,74.818   c-0.277-0.034-0.535-0.118-0.77-0.253c-0.236-0.132-0.441-0.309-0.615-0.531c-0.172-0.22-0.293-0.461-0.369-0.726   c-0.07-0.261-0.092-0.529-0.057-0.806c0.035-0.28,0.119-0.538,0.252-0.776c0.135-0.237,0.312-0.44,0.531-0.611   c0.223-0.173,0.465-0.295,0.725-0.368c0.264-0.072,0.531-0.092,0.811-0.057c0.273,0.033,0.531,0.116,0.768,0.249   c0.236,0.136,0.441,0.312,0.615,0.533c0.17,0.219,0.291,0.459,0.363,0.722c0.074,0.265,0.094,0.534,0.061,0.811   c-0.031,0.276-0.117,0.534-0.25,0.768c-0.133,0.236-0.312,0.444-0.533,0.62c-0.221,0.172-0.463,0.295-0.725,0.368   C57.211,74.833,56.941,74.852,56.666,74.818L56.666,74.818z M60.67,77.726c-0.277-0.034-0.535-0.118-0.771-0.251   c-0.234-0.135-0.439-0.312-0.613-0.533c-0.172-0.218-0.295-0.46-0.369-0.724c-0.072-0.263-0.092-0.532-0.057-0.807   c0.033-0.279,0.117-0.539,0.252-0.777c0.135-0.236,0.312-0.441,0.531-0.611c0.225-0.173,0.465-0.294,0.725-0.368   c0.262-0.072,0.533-0.091,0.809-0.058c0.277,0.035,0.533,0.118,0.768,0.251c0.238,0.135,0.443,0.312,0.615,0.532   c0.172,0.22,0.293,0.46,0.367,0.722c0.072,0.265,0.094,0.533,0.059,0.81c-0.033,0.279-0.117,0.533-0.252,0.77   c-0.133,0.236-0.311,0.442-0.531,0.62c-0.223,0.172-0.463,0.294-0.725,0.367C61.215,77.74,60.945,77.759,60.67,77.726L60.67,77.726   z M50.158,80.379c0.139-0.241,0.316-0.445,0.533-0.61c0.215-0.165,0.457-0.283,0.729-0.357c0.268-0.073,0.539-0.091,0.811-0.056   c0.27,0.034,0.525,0.122,0.764,0.262c0.246,0.141,0.451,0.319,0.619,0.536c0.164,0.217,0.281,0.459,0.354,0.728   c0.072,0.272,0.09,0.543,0.057,0.81c-0.037,0.271-0.123,0.526-0.264,0.769c-0.139,0.241-0.316,0.443-0.531,0.608   c-0.215,0.166-0.459,0.286-0.73,0.358c-0.268,0.072-0.537,0.091-0.807,0.054c-0.271-0.034-0.527-0.121-0.77-0.261   c-0.24-0.14-0.443-0.316-0.609-0.531c-0.164-0.216-0.285-0.46-0.362-0.732c-0.072-0.271-0.09-0.541-0.055-0.811   S50.02,80.619,50.158,80.379L50.158,80.379z M54.957,81.276c0.141-0.241,0.318-0.445,0.535-0.611   c0.215-0.164,0.457-0.284,0.729-0.358c0.27-0.071,0.539-0.091,0.811-0.055c0.27,0.035,0.525,0.123,0.766,0.261   c0.242,0.142,0.451,0.321,0.617,0.537c0.164,0.217,0.281,0.459,0.355,0.728c0.07,0.272,0.09,0.544,0.055,0.811   c-0.037,0.271-0.125,0.526-0.264,0.769c-0.139,0.24-0.316,0.443-0.531,0.608c-0.217,0.166-0.459,0.284-0.73,0.357   c-0.268,0.071-0.535,0.091-0.807,0.055c-0.273-0.036-0.529-0.122-0.77-0.261c-0.242-0.139-0.445-0.316-0.609-0.531   c-0.166-0.216-0.285-0.461-0.361-0.733c-0.072-0.271-0.09-0.54-0.055-0.811C54.732,81.771,54.82,81.517,54.957,81.276   L54.957,81.276z" fill="url('#linearGradientSkjj4fqgb4')" stroke="none" style=""></path>
        </g>
      </svg>
    </g>
    <g transform="matrix(3.1246,0,0,3.1246,105.5148,44.7622)">
      <svg width="107.52143093452311" height="68.38841425583925" viewBox="-3.9699215005608597,-3.1594142558392364,107.52143093452311,68.38841425583925">
        <defs>
          <linearGradient x1="0" y1="0.5" x2="1" y2="0.5" id="linearGradientSkjj4fqgba">
            <stop offset="0%" stop-color="#ede576"></stop>
            <stop offset="100%" stop-color="#ede576"></stop>
          </linearGradient>
        </defs>
        <g>
          <path d="M8.879,60.229c-0.213-0.135-0.396-0.304-0.551-0.507c-0.168-0.225-0.285-0.467-0.353-0.729   c-0.068-0.262-0.084-0.535-0.048-0.815c0.04-0.278,0.128-0.533,0.266-0.768c0.139-0.234,0.318-0.435,0.54-0.602   c0.224-0.169,0.467-0.287,0.729-0.356c0.263-0.065,0.532-0.08,0.812-0.042c0.275,0.037,0.531,0.127,0.769,0.265   c0.233,0.139,0.435,0.318,0.602,0.541c0.17,0.224,0.289,0.469,0.358,0.734c0.066,0.263,0.081,0.534,0.042,0.809   c-0.041,0.279-0.129,0.534-0.267,0.768c-0.137,0.234-0.318,0.436-0.542,0.604c-0.045,0.034-0.092,0.066-0.14,0.097L8.879,60.229   L8.879,60.229z M12.315,60.229c0.023-0.01,0.047-0.02,0.071-0.028c0.253-0.093,0.521-0.137,0.802-0.129   c0.252,0.009,0.492,0.061,0.723,0.154L12.315,60.229L12.315,60.229z M56.857,60.229c-0.018-0.133-0.023-0.267-0.018-0.402   c0.016-0.277,0.082-0.542,0.197-0.788c0.119-0.246,0.281-0.462,0.486-0.647c0.209-0.189,0.443-0.329,0.699-0.421   c0.258-0.09,0.527-0.127,0.803-0.112c0.281,0.016,0.545,0.082,0.789,0.197c0.244,0.118,0.461,0.281,0.648,0.488   c0.186,0.206,0.324,0.437,0.414,0.694c0.092,0.255,0.129,0.523,0.115,0.803c-0.004,0.064-0.01,0.126-0.018,0.188H56.857   L56.857,60.229z M61.002,58.33c-0.078-0.268-0.102-0.537-0.07-0.808c0.031-0.268,0.115-0.526,0.25-0.772   c0.135-0.243,0.309-0.451,0.523-0.623c0.213-0.169,0.453-0.291,0.721-0.368c0.27-0.076,0.539-0.102,0.812-0.07   c0.27,0.032,0.527,0.116,0.771,0.25c0.244,0.139,0.453,0.312,0.619,0.523c0.17,0.214,0.293,0.454,0.371,0.723   c0.076,0.268,0.1,0.534,0.068,0.806c-0.031,0.271-0.113,0.527-0.248,0.773c-0.137,0.242-0.311,0.448-0.523,0.618   c-0.213,0.172-0.455,0.295-0.721,0.372c-0.27,0.077-0.537,0.1-0.807,0.068c-0.268-0.03-0.529-0.114-0.777-0.248   c-0.246-0.136-0.453-0.311-0.623-0.522C61.201,58.839,61.078,58.598,61.002,58.33L61.002,58.33z M65.6,57.127   c0-0.28,0.051-0.545,0.154-0.796c0.105-0.25,0.256-0.475,0.453-0.675c0.197-0.197,0.424-0.348,0.676-0.453   c0.25-0.104,0.516-0.156,0.793-0.156c0.281,0,0.551,0.053,0.801,0.156c0.252,0.105,0.477,0.256,0.674,0.453   c0.197,0.2,0.35,0.425,0.451,0.675c0.105,0.251,0.156,0.516,0.156,0.796c0,0.278-0.051,0.543-0.156,0.793   c-0.102,0.252-0.254,0.476-0.451,0.675c-0.197,0.195-0.422,0.348-0.674,0.451c-0.25,0.104-0.518,0.158-0.795,0.158   c-0.279,0-0.545-0.053-0.793-0.156c-0.252-0.104-0.479-0.255-0.682-0.453c-0.197-0.198-0.348-0.423-0.453-0.675   C65.65,57.67,65.6,57.405,65.6,57.127L65.6,57.127z M70.43,57.305c-0.004-0.28,0.045-0.546,0.145-0.799   c0.1-0.252,0.246-0.479,0.439-0.683c0.193-0.199,0.416-0.354,0.666-0.465c0.25-0.108,0.514-0.164,0.791-0.169   c0.283-0.005,0.549,0.041,0.805,0.141c0.254,0.103,0.479,0.249,0.68,0.443c0.203,0.196,0.357,0.418,0.465,0.665   c0.109,0.25,0.164,0.515,0.17,0.794c0.004,0.277-0.043,0.543-0.143,0.795c-0.1,0.253-0.246,0.48-0.441,0.683   c-0.193,0.199-0.414,0.354-0.662,0.462c-0.252,0.11-0.518,0.168-0.795,0.173c-0.279,0.005-0.543-0.043-0.795-0.142   c-0.252-0.101-0.482-0.247-0.688-0.441c-0.203-0.195-0.359-0.417-0.465-0.667C70.492,57.846,70.436,57.583,70.43,57.305   L70.43,57.305z M75.262,57.249c-0.027-0.278-0.004-0.548,0.072-0.81c0.078-0.258,0.205-0.498,0.381-0.718   c0.174-0.216,0.383-0.39,0.623-0.521c0.238-0.13,0.496-0.208,0.773-0.238c0.279-0.028,0.549-0.005,0.812,0.071   c0.262,0.08,0.5,0.206,0.715,0.381c0.219,0.179,0.393,0.387,0.523,0.624c0.129,0.239,0.209,0.497,0.238,0.774   c0.027,0.277,0.004,0.546-0.072,0.807c-0.076,0.26-0.205,0.5-0.381,0.719c-0.176,0.216-0.383,0.387-0.621,0.518   c-0.24,0.131-0.5,0.211-0.775,0.24c-0.279,0.03-0.547,0.005-0.807-0.071c-0.26-0.077-0.502-0.205-0.723-0.381   c-0.217-0.175-0.391-0.384-0.521-0.623C75.371,57.782,75.291,57.524,75.262,57.249L75.262,57.249z M80.07,56.747   c-0.064-0.271-0.072-0.541-0.027-0.811c0.045-0.265,0.141-0.52,0.289-0.758c0.148-0.236,0.332-0.434,0.555-0.594   c0.223-0.158,0.469-0.269,0.74-0.33c0.271-0.062,0.545-0.073,0.816-0.029c0.268,0.047,0.52,0.144,0.756,0.291   c0.238,0.149,0.436,0.334,0.594,0.555c0.156,0.222,0.268,0.469,0.33,0.742c0.062,0.27,0.072,0.539,0.027,0.807   c-0.047,0.269-0.143,0.521-0.291,0.76c-0.146,0.235-0.332,0.432-0.553,0.591c-0.223,0.159-0.471,0.271-0.74,0.333   c-0.273,0.062-0.541,0.071-0.809,0.025c-0.268-0.045-0.523-0.14-0.764-0.287c-0.238-0.149-0.436-0.334-0.594-0.556   C80.242,57.266,80.131,57.018,80.07,56.747L80.07,56.747z M84.812,55.739c-0.123-0.251-0.193-0.513-0.209-0.784   c-0.016-0.27,0.02-0.537,0.111-0.805c0.09-0.263,0.227-0.497,0.406-0.703c0.182-0.203,0.396-0.366,0.646-0.488   c0.252-0.122,0.516-0.193,0.789-0.211c0.271-0.015,0.539,0.022,0.803,0.113c0.264,0.093,0.5,0.229,0.701,0.407   c0.205,0.181,0.369,0.396,0.49,0.648c0.121,0.248,0.191,0.509,0.207,0.78c0.018,0.271-0.02,0.539-0.111,0.806   c-0.09,0.262-0.225,0.496-0.406,0.699c-0.182,0.206-0.396,0.37-0.646,0.492c-0.25,0.121-0.512,0.191-0.781,0.207   c-0.271,0.017-0.541-0.02-0.811-0.109c-0.266-0.091-0.498-0.227-0.701-0.407C85.096,56.204,84.934,55.989,84.812,55.739   L84.812,55.739z M89.135,53.618c-0.164-0.227-0.279-0.471-0.342-0.736c-0.062-0.262-0.072-0.532-0.031-0.812   c0.045-0.275,0.137-0.529,0.279-0.764c0.143-0.231,0.326-0.43,0.551-0.592c0.229-0.165,0.475-0.281,0.742-0.346   c0.266-0.062,0.533-0.071,0.809-0.028c0.277,0.046,0.531,0.14,0.764,0.279c0.23,0.143,0.428,0.327,0.594,0.553   c0.164,0.225,0.277,0.469,0.34,0.733c0.064,0.265,0.074,0.535,0.029,0.812c-0.043,0.273-0.135,0.528-0.277,0.759   c-0.145,0.235-0.328,0.434-0.551,0.596c-0.227,0.165-0.473,0.278-0.734,0.342c-0.264,0.062-0.537,0.074-0.816,0.031   c-0.277-0.042-0.531-0.136-0.762-0.279C89.494,54.027,89.297,53.843,89.135,53.618L89.135,53.618z M93.002,50.694   c-0.24-0.144-0.439-0.324-0.602-0.543c-0.162-0.217-0.275-0.463-0.346-0.736c-0.068-0.27-0.08-0.539-0.041-0.812   c0.041-0.269,0.131-0.521,0.275-0.76c0.145-0.241,0.328-0.444,0.545-0.606c0.221-0.162,0.467-0.276,0.736-0.343   c0.273-0.067,0.543-0.081,0.811-0.041c0.27,0.04,0.523,0.132,0.764,0.276c0.238,0.143,0.438,0.323,0.6,0.542   c0.16,0.219,0.277,0.464,0.344,0.736c0.068,0.27,0.082,0.538,0.041,0.808c-0.041,0.271-0.131,0.525-0.275,0.764   c-0.143,0.239-0.322,0.439-0.541,0.601s-0.465,0.277-0.738,0.349c-0.273,0.068-0.543,0.082-0.812,0.041   C93.494,50.93,93.238,50.838,93.002,50.694L93.002,50.694z M95.488,46.565c-0.271-0.067-0.518-0.183-0.734-0.345   c-0.217-0.16-0.398-0.361-0.545-0.603c-0.143-0.237-0.236-0.492-0.277-0.764c-0.039-0.269-0.025-0.538,0.041-0.808   c0.068-0.273,0.184-0.52,0.344-0.739c0.164-0.22,0.365-0.4,0.604-0.543c0.242-0.145,0.498-0.236,0.764-0.276   c0.27-0.04,0.539-0.026,0.811,0.041c0.27,0.066,0.514,0.183,0.732,0.344s0.4,0.361,0.545,0.603   c0.143,0.238,0.234,0.491,0.273,0.762c0.043,0.27,0.029,0.54-0.037,0.81c-0.068,0.271-0.184,0.517-0.344,0.732   c-0.162,0.219-0.363,0.402-0.604,0.55c-0.24,0.145-0.496,0.237-0.766,0.276C96.027,46.647,95.758,46.632,95.488,46.565   L95.488,46.565z M96.512,41.847c-0.279,0.004-0.547-0.043-0.799-0.143s-0.479-0.246-0.682-0.441   c-0.201-0.192-0.357-0.415-0.467-0.666c-0.107-0.25-0.164-0.513-0.17-0.791c-0.004-0.281,0.045-0.549,0.145-0.804   c0.1-0.253,0.246-0.48,0.439-0.68c0.197-0.202,0.418-0.356,0.668-0.465c0.248-0.108,0.514-0.165,0.793-0.17   c0.277-0.004,0.541,0.043,0.795,0.143c0.252,0.099,0.48,0.246,0.684,0.441c0.199,0.192,0.354,0.414,0.461,0.663   c0.111,0.251,0.168,0.516,0.172,0.794c0.006,0.278-0.041,0.544-0.141,0.795c-0.1,0.253-0.248,0.482-0.441,0.688   c-0.195,0.202-0.416,0.358-0.666,0.466C97.053,41.785,96.789,41.841,96.512,41.847L96.512,41.847z M96.248,37.012   c-0.271,0.068-0.543,0.082-0.809,0.042c-0.27-0.041-0.523-0.133-0.766-0.276c-0.238-0.144-0.439-0.325-0.602-0.546   c-0.164-0.218-0.277-0.462-0.346-0.73c-0.066-0.274-0.082-0.546-0.041-0.816c0.041-0.269,0.133-0.523,0.277-0.762   c0.146-0.24,0.326-0.441,0.543-0.603c0.219-0.162,0.465-0.275,0.736-0.345c0.27-0.066,0.537-0.08,0.807-0.04   c0.27,0.039,0.523,0.132,0.766,0.276c0.236,0.144,0.436,0.324,0.6,0.543c0.162,0.221,0.277,0.465,0.346,0.734   c0.068,0.271,0.08,0.54,0.041,0.807c-0.041,0.27-0.133,0.526-0.277,0.771c-0.143,0.24-0.324,0.441-0.543,0.603   C96.762,36.831,96.518,36.945,96.248,37.012L96.248,37.012z M94.895,32.355c-0.254,0.113-0.518,0.174-0.791,0.182   c-0.27,0.006-0.535-0.04-0.799-0.14c-0.26-0.1-0.49-0.244-0.688-0.432s-0.354-0.408-0.467-0.662   c-0.113-0.256-0.176-0.522-0.184-0.796c-0.006-0.272,0.043-0.538,0.141-0.798c0.104-0.262,0.246-0.492,0.432-0.688   c0.189-0.197,0.41-0.353,0.664-0.467c0.254-0.113,0.518-0.173,0.789-0.181c0.271-0.007,0.539,0.039,0.801,0.14   c0.26,0.1,0.486,0.243,0.684,0.431c0.201,0.188,0.355,0.409,0.469,0.662c0.115,0.256,0.174,0.519,0.182,0.789   c0.008,0.271-0.039,0.54-0.139,0.806c-0.102,0.262-0.244,0.491-0.432,0.688C95.369,32.087,95.148,32.243,94.895,32.355   L94.895,32.355z M92.838,27.99c-0.234,0.152-0.486,0.253-0.752,0.304c-0.268,0.048-0.537,0.043-0.812-0.014   c-0.271-0.058-0.521-0.164-0.748-0.318c-0.223-0.154-0.41-0.348-0.562-0.58c-0.154-0.237-0.254-0.49-0.307-0.758   c-0.047-0.269-0.043-0.539,0.016-0.811c0.061-0.275,0.166-0.524,0.318-0.747c0.154-0.225,0.348-0.412,0.582-0.564   c0.234-0.151,0.482-0.252,0.75-0.302s0.537-0.045,0.812,0.014c0.273,0.058,0.52,0.163,0.744,0.317   c0.227,0.154,0.416,0.349,0.566,0.581c0.152,0.234,0.252,0.484,0.303,0.751c0.049,0.268,0.045,0.539-0.012,0.817   c-0.057,0.273-0.162,0.522-0.318,0.747C93.266,27.651,93.07,27.839,92.838,27.99L92.838,27.99z M90.15,23.969   c-0.215,0.18-0.453,0.31-0.711,0.393c-0.258,0.08-0.529,0.109-0.809,0.086c-0.277-0.024-0.537-0.1-0.779-0.226   c-0.242-0.125-0.453-0.294-0.631-0.507c-0.18-0.216-0.312-0.454-0.396-0.715c-0.08-0.26-0.107-0.529-0.084-0.805   c0.025-0.282,0.102-0.543,0.227-0.781c0.125-0.241,0.295-0.452,0.508-0.631c0.213-0.18,0.449-0.31,0.709-0.392   s0.527-0.111,0.809-0.086c0.275,0.024,0.535,0.099,0.775,0.225c0.244,0.126,0.457,0.295,0.635,0.508   c0.18,0.215,0.309,0.45,0.391,0.708c0.08,0.259,0.111,0.53,0.088,0.812c-0.023,0.28-0.098,0.54-0.225,0.78   C90.531,23.581,90.361,23.79,90.15,23.969L90.15,23.969z M87.008,20.294c-0.197,0.198-0.422,0.349-0.674,0.453   c-0.248,0.104-0.516,0.155-0.797,0.156c-0.277,0-0.545-0.052-0.797-0.156s-0.477-0.255-0.672-0.451   c-0.199-0.199-0.352-0.424-0.457-0.677c-0.102-0.253-0.154-0.518-0.154-0.796c0.002-0.281,0.055-0.547,0.158-0.797   c0.104-0.251,0.254-0.476,0.451-0.674c0.195-0.195,0.42-0.346,0.672-0.451c0.25-0.104,0.518-0.155,0.797-0.155   c0.277,0,0.543,0.052,0.793,0.155c0.254,0.105,0.479,0.256,0.676,0.451c0.197,0.198,0.348,0.422,0.451,0.672   c0.104,0.251,0.158,0.519,0.16,0.801c0,0.281-0.053,0.547-0.156,0.799C87.355,19.874,87.205,20.098,87.008,20.294L87.008,20.294z    M83.559,16.899c-0.172,0.221-0.377,0.397-0.613,0.532c-0.234,0.132-0.492,0.216-0.771,0.251c-0.277,0.035-0.545,0.015-0.811-0.058   c-0.262-0.071-0.502-0.195-0.721-0.365c-0.223-0.174-0.4-0.379-0.537-0.617c-0.133-0.237-0.215-0.494-0.25-0.77   c-0.033-0.28-0.012-0.551,0.059-0.811c0.072-0.262,0.195-0.504,0.367-0.724c0.172-0.219,0.375-0.396,0.611-0.529   c0.238-0.135,0.494-0.219,0.773-0.252c0.275-0.034,0.543-0.015,0.805,0.059c0.266,0.071,0.506,0.193,0.727,0.364   c0.219,0.173,0.395,0.376,0.529,0.612c0.133,0.235,0.219,0.495,0.258,0.775c0.031,0.278,0.014,0.548-0.061,0.811   C83.852,16.44,83.73,16.681,83.559,16.899L83.559,16.899z M79.715,13.946c-0.156,0.231-0.348,0.423-0.574,0.573   c-0.227,0.148-0.477,0.25-0.752,0.305c-0.273,0.054-0.545,0.054-0.812-0.001s-0.516-0.159-0.746-0.314   c-0.234-0.157-0.426-0.35-0.578-0.578c-0.146-0.227-0.25-0.478-0.303-0.751c-0.053-0.276-0.053-0.547,0.002-0.812   c0.055-0.267,0.16-0.515,0.314-0.747c0.156-0.229,0.348-0.421,0.574-0.57c0.227-0.15,0.479-0.252,0.752-0.305   c0.271-0.054,0.543-0.053,0.809,0.002c0.27,0.053,0.52,0.157,0.75,0.312c0.232,0.156,0.422,0.348,0.57,0.572   c0.15,0.228,0.254,0.479,0.311,0.758c0.053,0.274,0.053,0.546-0.002,0.812C79.975,13.468,79.871,13.717,79.715,13.946   L79.715,13.946z M75.688,11.298c-0.135,0.244-0.309,0.451-0.521,0.621c-0.213,0.168-0.453,0.291-0.725,0.37   c-0.266,0.076-0.537,0.1-0.809,0.068c-0.27-0.03-0.527-0.113-0.77-0.248c-0.246-0.137-0.455-0.312-0.627-0.525   c-0.168-0.214-0.291-0.455-0.365-0.721c-0.078-0.272-0.102-0.542-0.07-0.811c0.029-0.27,0.113-0.527,0.25-0.771   c0.135-0.243,0.309-0.449,0.521-0.619c0.211-0.17,0.451-0.292,0.723-0.369c0.266-0.077,0.535-0.1,0.805-0.069   c0.273,0.031,0.531,0.113,0.773,0.248c0.244,0.136,0.451,0.31,0.617,0.521c0.172,0.211,0.295,0.453,0.377,0.726   c0.078,0.27,0.1,0.539,0.068,0.81C75.906,10.798,75.822,11.055,75.688,11.298L75.688,11.298z M71.459,8.969   c-0.105,0.259-0.252,0.485-0.443,0.68c-0.189,0.192-0.412,0.344-0.672,0.455c-0.256,0.109-0.521,0.165-0.797,0.168   c-0.271,0.002-0.535-0.048-0.793-0.152c-0.262-0.105-0.488-0.254-0.684-0.444c-0.193-0.192-0.346-0.417-0.453-0.673   c-0.109-0.26-0.166-0.524-0.168-0.795c-0.004-0.271,0.049-0.537,0.152-0.796c0.105-0.258,0.252-0.483,0.443-0.678   c0.189-0.193,0.414-0.346,0.672-0.455c0.256-0.108,0.52-0.164,0.791-0.166c0.275-0.003,0.541,0.047,0.799,0.15   c0.26,0.105,0.484,0.252,0.676,0.441c0.195,0.191,0.348,0.416,0.461,0.675c0.109,0.26,0.166,0.523,0.17,0.796   C71.615,8.446,71.562,8.712,71.459,8.969L71.459,8.969z M66.971,7.16c-0.088,0.265-0.219,0.502-0.396,0.709   c-0.176,0.205-0.389,0.372-0.639,0.501c-0.248,0.127-0.508,0.201-0.781,0.223c-0.271,0.021-0.539-0.011-0.803-0.097   c-0.268-0.088-0.506-0.219-0.715-0.396c-0.205-0.179-0.373-0.391-0.498-0.64C63.012,7.21,62.938,6.95,62.916,6.68   s0.012-0.539,0.098-0.805C63.1,5.61,63.23,5.376,63.408,5.169c0.176-0.208,0.389-0.374,0.639-0.501   c0.248-0.127,0.508-0.201,0.777-0.222c0.273-0.022,0.543,0.01,0.807,0.096c0.266,0.086,0.502,0.217,0.707,0.394   c0.207,0.176,0.375,0.39,0.508,0.642c0.125,0.249,0.201,0.51,0.221,0.78C67.088,6.629,67.055,6.896,66.971,7.16L66.971,7.16z    M62.367,5.696c-0.062,0.272-0.172,0.52-0.33,0.74s-0.355,0.405-0.594,0.557c-0.236,0.146-0.488,0.242-0.76,0.289   c-0.268,0.045-0.537,0.035-0.807-0.026c-0.275-0.062-0.523-0.174-0.746-0.332c-0.221-0.159-0.406-0.357-0.553-0.594   c-0.148-0.239-0.246-0.492-0.291-0.759c-0.043-0.268-0.033-0.537,0.027-0.811c0.064-0.27,0.174-0.517,0.332-0.738   c0.156-0.221,0.355-0.406,0.592-0.556c0.236-0.146,0.488-0.243,0.758-0.287c0.27-0.046,0.541-0.037,0.811,0.024   c0.271,0.063,0.518,0.173,0.738,0.33c0.221,0.159,0.408,0.356,0.559,0.595c0.148,0.237,0.246,0.491,0.291,0.759   C62.439,5.157,62.43,5.426,62.367,5.696L62.367,5.696z M57.639,4.659c-0.039,0.277-0.127,0.532-0.266,0.768   C57.236,5.658,57.055,5.86,56.83,6.03c-0.221,0.168-0.467,0.286-0.73,0.355c-0.264,0.068-0.533,0.083-0.807,0.044   c-0.279-0.039-0.537-0.128-0.773-0.266c-0.234-0.14-0.436-0.32-0.602-0.543c-0.168-0.226-0.287-0.47-0.355-0.73   C53.494,4.628,53.48,4.357,53.52,4.08c0.039-0.274,0.127-0.528,0.264-0.764c0.141-0.233,0.32-0.436,0.545-0.604   c0.221-0.167,0.463-0.284,0.727-0.353c0.266-0.069,0.535-0.085,0.809-0.046c0.277,0.038,0.533,0.127,0.766,0.264   c0.234,0.139,0.438,0.319,0.609,0.544c0.17,0.225,0.287,0.469,0.355,0.73C57.664,4.115,57.678,4.385,57.639,4.659L57.639,4.659z    M52.85,3.99c-0.01,0.28-0.07,0.543-0.184,0.791c-0.113,0.245-0.271,0.465-0.477,0.658c-0.203,0.189-0.432,0.332-0.689,0.43   c-0.254,0.095-0.521,0.138-0.799,0.127c-0.281-0.01-0.545-0.07-0.796-0.184c-0.246-0.114-0.466-0.272-0.654-0.477   c-0.192-0.207-0.335-0.437-0.43-0.689c-0.096-0.254-0.138-0.521-0.128-0.801c0.009-0.278,0.071-0.54,0.184-0.788   c0.111-0.247,0.271-0.467,0.477-0.658c0.202-0.188,0.433-0.331,0.686-0.427c0.258-0.097,0.523-0.14,0.801-0.13   c0.279,0.009,0.543,0.07,0.787,0.184c0.248,0.111,0.469,0.271,0.666,0.477c0.189,0.205,0.334,0.435,0.428,0.689   C52.816,3.447,52.859,3.713,52.85,3.99L52.85,3.99z M48.014,3.843c0.015,0.28-0.022,0.548-0.113,0.804   C47.81,4.9,47.671,5.133,47.484,5.344c-0.187,0.206-0.402,0.369-0.65,0.487c-0.245,0.117-0.507,0.183-0.784,0.197   c-0.28,0.015-0.551-0.023-0.809-0.113c-0.257-0.092-0.487-0.231-0.694-0.417c-0.208-0.19-0.372-0.407-0.487-0.65   c-0.117-0.245-0.184-0.508-0.198-0.787c-0.014-0.277,0.023-0.544,0.114-0.801c0.091-0.256,0.23-0.488,0.418-0.697   c0.186-0.206,0.401-0.368,0.646-0.483c0.248-0.12,0.51-0.187,0.787-0.201c0.279-0.015,0.546,0.023,0.801,0.114   c0.256,0.091,0.489,0.229,0.702,0.418c0.209,0.187,0.371,0.403,0.487,0.648C47.935,3.304,48,3.565,48.014,3.843L48.014,3.843z    M43.181,4.138c0.04,0.277,0.024,0.547-0.043,0.81C43.07,5.21,42.952,5.452,42.783,5.68c-0.167,0.221-0.368,0.401-0.604,0.542   c-0.234,0.139-0.489,0.226-0.765,0.265c-0.278,0.039-0.55,0.025-0.814-0.043c-0.265-0.069-0.506-0.188-0.729-0.355   c-0.224-0.17-0.405-0.372-0.543-0.604c-0.138-0.234-0.227-0.49-0.265-0.767c-0.039-0.275-0.024-0.544,0.044-0.808   c0.067-0.264,0.186-0.507,0.354-0.731c0.167-0.221,0.368-0.401,0.603-0.539c0.235-0.141,0.491-0.229,0.767-0.268   c0.276-0.039,0.546-0.024,0.808,0.044c0.263,0.067,0.508,0.185,0.736,0.354c0.224,0.168,0.404,0.37,0.543,0.604   C43.055,3.608,43.143,3.862,43.181,4.138L43.181,4.138z M38.385,4.783c0.067,0.271,0.082,0.541,0.042,0.81   c-0.041,0.268-0.133,0.522-0.277,0.765c-0.144,0.237-0.324,0.439-0.544,0.603c-0.219,0.161-0.463,0.275-0.732,0.343   c-0.273,0.068-0.545,0.083-0.815,0.044c-0.27-0.043-0.523-0.135-0.762-0.277c-0.241-0.146-0.441-0.328-0.604-0.546   c-0.16-0.217-0.276-0.463-0.344-0.734c-0.066-0.27-0.08-0.539-0.04-0.807c0.04-0.27,0.132-0.524,0.276-0.765   c0.144-0.238,0.324-0.438,0.543-0.6c0.22-0.163,0.464-0.278,0.733-0.347c0.271-0.067,0.541-0.081,0.808-0.041   c0.27,0.041,0.525,0.132,0.771,0.276c0.24,0.144,0.441,0.325,0.603,0.545C38.205,4.27,38.319,4.514,38.385,4.783L38.385,4.783z    M33.691,5.899c0.091,0.264,0.129,0.532,0.112,0.804c-0.017,0.27-0.087,0.531-0.209,0.785c-0.122,0.25-0.285,0.466-0.49,0.648   c-0.204,0.18-0.437,0.315-0.699,0.405c-0.267,0.093-0.536,0.13-0.809,0.114c-0.272-0.019-0.533-0.09-0.783-0.211   c-0.253-0.125-0.469-0.288-0.648-0.489c-0.18-0.204-0.315-0.438-0.406-0.702c-0.091-0.263-0.128-0.529-0.11-0.801   c0.016-0.271,0.086-0.532,0.208-0.785c0.122-0.25,0.285-0.465,0.489-0.645c0.204-0.183,0.438-0.319,0.701-0.409   c0.264-0.092,0.53-0.128,0.801-0.111c0.271,0.017,0.534,0.085,0.79,0.207c0.252,0.123,0.469,0.287,0.648,0.49   S33.601,5.637,33.691,5.899L33.691,5.899z M29.131,7.455c0.104,0.259,0.155,0.524,0.153,0.796   c-0.003,0.271-0.059,0.535-0.168,0.796c-0.107,0.255-0.26,0.479-0.455,0.673c-0.193,0.19-0.42,0.337-0.678,0.441   c-0.261,0.105-0.528,0.157-0.802,0.156c-0.272-0.005-0.536-0.062-0.792-0.17c-0.259-0.11-0.483-0.263-0.673-0.455   c-0.19-0.194-0.338-0.421-0.442-0.68C25.17,8.755,25.12,8.49,25.122,8.219c0.003-0.272,0.059-0.538,0.168-0.796   c0.108-0.255,0.26-0.479,0.454-0.668c0.194-0.192,0.421-0.342,0.679-0.445c0.26-0.104,0.524-0.157,0.794-0.153   c0.271,0.002,0.538,0.058,0.801,0.166c0.258,0.109,0.481,0.261,0.672,0.454C28.879,6.972,29.027,7.197,29.131,7.455L29.131,7.455z    M24.669,9.311c0.127,0.249,0.201,0.51,0.223,0.78c0.021,0.27-0.012,0.538-0.098,0.807c-0.086,0.264-0.218,0.501-0.396,0.711   c-0.176,0.206-0.389,0.372-0.636,0.499c-0.251,0.128-0.513,0.202-0.785,0.226c-0.272,0.02-0.54-0.014-0.805-0.1   c-0.268-0.089-0.504-0.221-0.71-0.396c-0.206-0.176-0.373-0.389-0.5-0.639c-0.126-0.247-0.199-0.506-0.222-0.777   c-0.021-0.271,0.011-0.54,0.098-0.807c0.086-0.264,0.218-0.5,0.395-0.706c0.178-0.21,0.39-0.376,0.637-0.504   c0.249-0.126,0.509-0.2,0.778-0.221c0.271-0.021,0.542,0.011,0.812,0.096c0.268,0.087,0.504,0.218,0.71,0.395   C24.377,8.851,24.543,9.062,24.669,9.311L24.669,9.311z M20.368,11.529c0.144,0.24,0.236,0.494,0.276,0.764   c0.039,0.267,0.026,0.538-0.042,0.811c-0.066,0.271-0.181,0.516-0.344,0.736c-0.162,0.219-0.362,0.399-0.601,0.542   c-0.24,0.145-0.496,0.238-0.767,0.28c-0.271,0.039-0.539,0.024-0.81-0.043c-0.272-0.069-0.519-0.185-0.736-0.346   s-0.399-0.362-0.543-0.602c-0.144-0.237-0.234-0.491-0.275-0.761c-0.04-0.269-0.026-0.538,0.042-0.812   c0.066-0.269,0.182-0.514,0.343-0.731c0.162-0.221,0.363-0.402,0.602-0.547c0.239-0.143,0.492-0.235,0.76-0.273   c0.27-0.041,0.541-0.028,0.816,0.037c0.272,0.068,0.518,0.184,0.736,0.345C20.044,11.092,20.224,11.292,20.368,11.529   L20.368,11.529z M16.265,14.077c0.176,0.218,0.304,0.457,0.38,0.717c0.077,0.26,0.101,0.529,0.072,0.811   c-0.029,0.275-0.109,0.534-0.238,0.775c-0.131,0.239-0.303,0.447-0.519,0.62c-0.22,0.178-0.459,0.306-0.721,0.384   c-0.263,0.077-0.531,0.1-0.808,0.071c-0.28-0.031-0.54-0.111-0.777-0.239c-0.238-0.13-0.446-0.303-0.622-0.521   c-0.175-0.216-0.301-0.454-0.378-0.715s-0.102-0.53-0.072-0.81c0.028-0.276,0.108-0.533,0.239-0.772   c0.129-0.241,0.303-0.449,0.519-0.625c0.217-0.176,0.455-0.302,0.715-0.378c0.261-0.076,0.531-0.103,0.813-0.075   c0.279,0.029,0.538,0.109,0.776,0.239C15.884,13.688,16.09,13.862,16.265,14.077L16.265,14.077z M12.524,17.137   c0.201,0.194,0.355,0.417,0.464,0.666c0.107,0.247,0.164,0.513,0.171,0.794c0.005,0.277-0.043,0.544-0.143,0.8   c-0.101,0.253-0.246,0.479-0.439,0.679c-0.195,0.203-0.419,0.359-0.669,0.469c-0.25,0.107-0.515,0.163-0.792,0.169   c-0.282,0.003-0.549-0.045-0.8-0.144c-0.254-0.099-0.48-0.245-0.682-0.44c-0.2-0.193-0.354-0.414-0.462-0.663   c-0.109-0.25-0.166-0.515-0.171-0.795c-0.005-0.277,0.043-0.543,0.143-0.796c0.1-0.255,0.246-0.482,0.439-0.683   c0.193-0.201,0.414-0.355,0.662-0.463c0.25-0.108,0.516-0.166,0.799-0.174c0.281-0.005,0.547,0.042,0.801,0.142   C12.097,16.797,12.324,16.944,12.524,17.137L12.524,17.137z M9.169,20.638c0.231,0.156,0.423,0.348,0.573,0.575   c0.148,0.225,0.25,0.476,0.306,0.752c0.052,0.273,0.052,0.543-0.001,0.812c-0.055,0.267-0.16,0.515-0.315,0.745   c-0.156,0.233-0.35,0.426-0.577,0.578c-0.228,0.148-0.479,0.249-0.752,0.303c-0.276,0.053-0.547,0.053-0.812-0.001   c-0.267-0.055-0.516-0.161-0.748-0.316c-0.229-0.155-0.42-0.346-0.569-0.572c-0.151-0.227-0.253-0.479-0.307-0.754   c-0.052-0.272-0.052-0.542,0.003-0.808c0.053-0.27,0.158-0.52,0.313-0.749c0.155-0.231,0.347-0.423,0.572-0.571   c0.228-0.15,0.479-0.254,0.757-0.311c0.275-0.053,0.546-0.052,0.812,0.003C8.691,20.377,8.939,20.481,9.169,20.638L9.169,20.638z    M6.506,24.676c0.253,0.118,0.471,0.277,0.655,0.479c0.183,0.199,0.321,0.431,0.419,0.694c0.095,0.261,0.138,0.53,0.126,0.803   s-0.076,0.534-0.194,0.786c-0.118,0.254-0.278,0.475-0.479,0.66c-0.202,0.184-0.434,0.322-0.694,0.417   c-0.266,0.096-0.533,0.138-0.804,0.126C5.263,28.629,5,28.564,4.749,28.445c-0.252-0.117-0.471-0.275-0.654-0.477   c-0.184-0.2-0.323-0.433-0.419-0.695c-0.095-0.262-0.137-0.527-0.125-0.8c0.012-0.273,0.075-0.536,0.192-0.788   c0.119-0.254,0.277-0.471,0.478-0.653c0.2-0.184,0.433-0.324,0.697-0.424c0.264-0.097,0.531-0.139,0.804-0.127   C5.992,24.493,6.253,24.559,6.506,24.676L6.506,24.676z M4.508,29.095c0.27,0.071,0.513,0.19,0.729,0.356   c0.213,0.164,0.392,0.368,0.534,0.612c0.139,0.239,0.227,0.496,0.264,0.768c0.034,0.27,0.016,0.539-0.056,0.808   c-0.072,0.271-0.192,0.517-0.357,0.733c-0.168,0.217-0.372,0.394-0.612,0.531c-0.244,0.141-0.501,0.229-0.769,0.264   c-0.27,0.036-0.539,0.017-0.81-0.056c-0.268-0.071-0.51-0.19-0.726-0.355s-0.395-0.37-0.534-0.611   c-0.139-0.241-0.227-0.497-0.262-0.766c-0.036-0.273-0.019-0.542,0.053-0.811c0.072-0.271,0.191-0.513,0.356-0.727   c0.165-0.216,0.37-0.395,0.613-0.54c0.243-0.14,0.499-0.228,0.77-0.263C3.97,29.004,4.24,29.022,4.508,29.095L4.508,29.095z    M3.302,33.783c0.278,0.024,0.537,0.099,0.779,0.225c0.239,0.125,0.449,0.295,0.632,0.511c0.179,0.213,0.31,0.449,0.394,0.71   c0.081,0.26,0.109,0.527,0.086,0.804c-0.024,0.281-0.101,0.543-0.226,0.786c-0.127,0.241-0.297,0.451-0.51,0.63   c-0.217,0.181-0.454,0.312-0.711,0.393c-0.26,0.081-0.528,0.11-0.808,0.085c-0.276-0.024-0.535-0.099-0.776-0.224   s-0.452-0.295-0.632-0.511c-0.179-0.212-0.31-0.448-0.391-0.708c-0.083-0.261-0.113-0.53-0.089-0.807   c0.024-0.279,0.099-0.538,0.225-0.777c0.125-0.24,0.296-0.454,0.511-0.639c0.215-0.18,0.452-0.31,0.711-0.392   C2.757,33.787,3.025,33.759,3.302,33.783L3.302,33.783z M2.89,38.618c0.278-0.029,0.548-0.006,0.809,0.071   c0.259,0.077,0.498,0.204,0.718,0.38c0.216,0.175,0.39,0.383,0.521,0.623c0.129,0.239,0.208,0.497,0.237,0.773   c0.03,0.28,0.006,0.551-0.07,0.813c-0.08,0.262-0.207,0.499-0.382,0.715c-0.178,0.219-0.386,0.393-0.622,0.522   c-0.239,0.129-0.498,0.208-0.776,0.238c-0.276,0.028-0.544,0.004-0.805-0.072c-0.261-0.078-0.501-0.204-0.719-0.382   c-0.216-0.175-0.389-0.381-0.518-0.62c-0.133-0.24-0.213-0.498-0.241-0.775c-0.029-0.277-0.005-0.546,0.071-0.805   c0.078-0.261,0.204-0.502,0.38-0.724c0.177-0.218,0.385-0.393,0.624-0.521C2.356,38.726,2.614,38.646,2.89,38.618L2.89,38.618z    M3.366,43.422c0.271-0.067,0.542-0.081,0.811-0.042c0.267,0.041,0.521,0.134,0.764,0.277c0.238,0.144,0.439,0.325,0.603,0.545   c0.162,0.219,0.276,0.462,0.344,0.731c0.067,0.273,0.083,0.546,0.043,0.815c-0.042,0.271-0.135,0.524-0.277,0.763   c-0.146,0.24-0.328,0.441-0.545,0.603c-0.219,0.161-0.464,0.275-0.735,0.344c-0.269,0.067-0.538,0.081-0.808,0.041   c-0.269-0.04-0.523-0.132-0.764-0.277c-0.238-0.144-0.438-0.323-0.6-0.543c-0.164-0.22-0.279-0.464-0.347-0.733   c-0.067-0.271-0.081-0.541-0.041-0.807c0.04-0.27,0.132-0.527,0.276-0.771c0.144-0.24,0.325-0.442,0.544-0.604   S3.096,43.489,3.366,43.422L3.366,43.422z M4.589,48.1c0.261-0.101,0.527-0.147,0.799-0.141c0.27,0.009,0.534,0.068,0.792,0.182   c0.254,0.113,0.476,0.27,0.665,0.468c0.187,0.196,0.33,0.426,0.43,0.684c0.101,0.264,0.147,0.532,0.142,0.805   c-0.009,0.273-0.069,0.536-0.183,0.79c-0.116,0.257-0.271,0.479-0.467,0.665c-0.197,0.188-0.427,0.33-0.688,0.431   c-0.259,0.1-0.524,0.146-0.797,0.14c-0.271-0.008-0.535-0.068-0.792-0.183c-0.254-0.113-0.475-0.269-0.661-0.466   c-0.189-0.198-0.334-0.426-0.434-0.687c-0.101-0.262-0.146-0.526-0.139-0.797c0.007-0.271,0.066-0.536,0.179-0.797   c0.115-0.257,0.271-0.478,0.468-0.664C4.101,48.342,4.33,48.199,4.589,48.1L4.589,48.1z M6.347,52.613   c0.242-0.142,0.498-0.229,0.768-0.264c0.268-0.036,0.538-0.018,0.811,0.055c0.269,0.071,0.512,0.19,0.729,0.356   c0.216,0.166,0.393,0.369,0.531,0.61c0.142,0.244,0.23,0.501,0.267,0.771c0.034,0.271,0.015,0.54-0.057,0.809   c-0.074,0.272-0.194,0.516-0.357,0.731c-0.165,0.214-0.37,0.393-0.611,0.531s-0.496,0.227-0.766,0.263s-0.54,0.017-0.811-0.056   c-0.269-0.072-0.511-0.191-0.726-0.356c-0.219-0.167-0.396-0.37-0.536-0.61c-0.14-0.242-0.227-0.497-0.262-0.765   c-0.035-0.27-0.018-0.542,0.054-0.816c0.071-0.27,0.191-0.514,0.356-0.729S6.107,52.751,6.347,52.613L6.347,52.613z" fill="url('#linearGradientSkjj4fqgba')" stroke="none" style=""></path>
        </g>
      </svg>
    </g>
    <g transform="matrix(1.5043,0,0,1.5043,136.0272,0.0964)">
      <svg width="187.0337218024264" height="186.77" viewBox="-5.131860901213205,-5,187.0337218024264,186.77" class="thumb">
        <defs>
          <linearGradient x1="0.5" y1="1" x2="0.5" y2="0" id="linearGradientSkjj4fqgbg">
            <stop offset="33.65%" stop-color="#1761a0"></stop>
            <stop offset="100%" stop-color="#8dcaff"></stop>
          </linearGradient>
        </defs>
        <g>
          <circle cx="88.385" cy="88.385" r="88.385" fill="url('#linearGradientSkjj4fqgbg')" stroke="none" style=""></circle>
        </g>
      </svg>
    </g>
    <g transform="matrix(1.5308,0,0,1.5308,271.4251,69.5575)">
      <svg width="33.789" height="45.682" viewBox="23.602999999999994,-5,33.789,45.682">
        <defs>
          <linearGradient x1="0" y1="0.5" x2="1" y2="0.5" id="linearGradientSkjj4fqgbm">
            <stop offset="0%" stop-color="#083b66"></stop>
            <stop offset="100%" stop-color="#083b66"></stop>
          </linearGradient>
        </defs>
        <g>
          <path fill="url('#linearGradientSkjj4fqgbm')" d="M35.714,35.682c3.445-8.742,9.304-16.163,16.678-21.562C51.262,9.494,50.838,4.73,51.175,0  c-1.895,1.077-3.739,2.301-5.497,3.677c-1.659,1.293-3.247,2.722-4.747,4.275c-1.38,1.425-2.634,2.933-3.792,4.485  c-4.721,6.335-7.535,13.61-8.536,21.078C31.012,34.04,33.378,34.754,35.714,35.682z" stroke="none" style=""></path>
        </g>
      </svg>
    </g>
    <g transform="matrix(1.5308,0,0,1.5308,226.2555,89.7572)">
      <svg width="109.99828860496928" height="97.58348129144257" viewBox="-4.999670973812933,3.120999999999997,109.99828860496928,97.58348129144257">
        <defs>
          <linearGradient x1="0" y1="0.5" x2="1" y2="0.5" id="linearGradientSkjj4fqgbs">
            <stop offset="0%" stop-color="#083b66"></stop>
            <stop offset="100%" stop-color="#083b66"></stop>
          </linearGradient>
        </defs>
        <g>
          <path fill="url('#linearGradientSkjj4fqgbs')" d="M93.213,68.966c-6.738,1.011-17.5,1.354-27.636-6.092c-0.522-0.387-1.053-0.811-1.59-1.263  c7.214-6.311,12.436-14.838,14.541-24.549c0.109-0.625,0.226-1.247,0.359-1.863c2.181-10.049,7.674-18.864,15.286-25.231  c-2.093-0.619-4.253-1.091-6.461-1.402c-2.084-0.294-4.211-0.445-6.377-0.445c-1.987,0-3.937,0.144-5.857,0.391  c-17.926,2.301-32.583,15.034-37.703,31.915c-7.024-3.453-15.423-5.432-25.739-4.077C-1.343,38.104,0.041,51.192,0.041,51.192  s4.839-2.521,10.396,0.07c5.206,2.429,6.509,7.673,6.509,7.673c3.393,20.645,21.342,29.73,34.62,29.73  c12.367,0,20.315-6.489,20.315-6.489l4.204,9.485c0,0,1.765,6.972,10.773,2.606c8.743-4.234,13.201-13.61,13.14-21.352  C99.965,69.378,97.841,68.269,93.213,68.966z" stroke="none" style=""></path>
        </g>
      </svg>
    </g>
    <g transform="matrix(1.5308,0,0,1.5308,269.4251,70.5575)">
      <svg width="33.789" height="45.682" viewBox="23.602999999999994,-5,33.789,45.682">
        <defs>
          <linearGradient x1="0" y1="0.5" x2="1" y2="0.5" id="linearGradientSkjj4fqgby">
            <stop offset="0%" stop-color="#ffffff"></stop>
            <stop offset="100%" stop-color="#ffffff"></stop>
          </linearGradient>
        </defs>
        <g>
          <path fill="url('#linearGradientSkjj4fqgby')" d="M35.714,35.682c3.445-8.742,9.304-16.163,16.678-21.562C51.262,9.494,50.838,4.73,51.175,0  c-1.895,1.077-3.739,2.301-5.497,3.677c-1.659,1.293-3.247,2.722-4.747,4.275c-1.38,1.425-2.634,2.933-3.792,4.485  c-4.721,6.335-7.535,13.61-8.536,21.078C31.012,34.04,33.378,34.754,35.714,35.682z" stroke="none" style=""></path>
        </g>
      </svg>
    </g>
    <g transform="matrix(1.5308,0,0,1.5308,223.2555,82.7572)">
      <svg width="109.99828860496928" height="97.58348129144257" viewBox="-4.999670973812933,3.120999999999997,109.99828860496928,97.58348129144257">
        <defs>
          <linearGradient x1="0" y1="0.5" x2="1" y2="0.5" id="linearGradientSkjj4fqgb14">
            <stop offset="0%" stop-color="#ffffff"></stop>
            <stop offset="100%" stop-color="#ffffff"></stop>
          </linearGradient>
        </defs>
        <g>
          <path fill="url('#linearGradientSkjj4fqgb14')" d="M93.213,68.966c-6.738,1.011-17.5,1.354-27.636-6.092c-0.522-0.387-1.053-0.811-1.59-1.263  c7.214-6.311,12.436-14.838,14.541-24.549c0.109-0.625,0.226-1.247,0.359-1.863c2.181-10.049,7.674-18.864,15.286-25.231  c-2.093-0.619-4.253-1.091-6.461-1.402c-2.084-0.294-4.211-0.445-6.377-0.445c-1.987,0-3.937,0.144-5.857,0.391  c-17.926,2.301-32.583,15.034-37.703,31.915c-7.024-3.453-15.423-5.432-25.739-4.077C-1.343,38.104,0.041,51.192,0.041,51.192  s4.839-2.521,10.396,0.07c5.206,2.429,6.509,7.673,6.509,7.673c3.393,20.645,21.342,29.73,34.62,29.73  c12.367,0,20.315-6.489,20.315-6.489l4.204,9.485c0,0,1.765,6.972,10.773,2.606c8.743-4.234,13.201-13.61,13.14-21.352  C99.965,69.378,97.841,68.269,93.213,68.966z" stroke="none" style=""></path>
        </g>
      </svg>
    </g>
    <g transform="matrix(1.7617,0,0,1.7617,139.8348,152.3105)">
      <svg width="102.488" height="11.330000000000005" viewBox="-1.245,56.342,102.488,11.330000000000005">
        <defs>
          <linearGradient x1="0" y1="0.5" x2="1" y2="0.5" id="linearGradientSkjj4fqgb1a">
            <stop offset="0%" stop-color="#ede576"></stop>
            <stop offset="100%" stop-color="#ede576"></stop>
          </linearGradient>
        </defs>
        <g>
          <path d="M3.755,62.008c0,0,0.361-0.014,1.039-0.037c0.677-0.02,1.671-0.062,2.936-0.092c2.528-0.057,6.142-0.176,10.477-0.252    c2.168-0.035,4.517-0.074,7-0.113c2.484-0.029,5.104-0.059,7.812-0.09c2.71-0.02,5.51-0.039,8.355-0.059    c2.845-0.008,5.735-0.016,8.625-0.023c2.892,0.008,5.782,0.016,8.625,0.023c2.847,0,5.646,0.039,8.354,0.057    c5.42,0.047,10.478,0.117,14.812,0.203c4.336,0.074,7.948,0.195,10.479,0.254c1.265,0.027,2.258,0.072,2.935,0.092    c0.678,0.023,1.039,0.037,1.039,0.037s-0.361,0.012-1.039,0.035c-0.677,0.021-1.67,0.066-2.935,0.094    c-2.528,0.057-6.144,0.178-10.479,0.254c-4.336,0.084-9.394,0.156-14.812,0.203c-2.709,0.018-5.511,0.057-8.354,0.057    c-2.845,0.01-5.733,0.018-8.625,0.021c-2.89-0.008-5.78-0.016-8.625-0.021c-2.846-0.021-5.646-0.039-8.355-0.059    c-2.709-0.031-5.328-0.061-7.812-0.09c-2.483-0.041-4.832-0.078-7-0.113c-4.335-0.076-7.948-0.195-10.477-0.252    c-1.265-0.027-2.259-0.072-2.936-0.094C4.117,62.02,3.755,62.008,3.755,62.008z" fill="url('#linearGradientSkjj4fqgb1a')" stroke="none" style=""></path>
        </g>
      </svg>
    </g>
    <g transform="matrix(1.7617,0,0,1.7617,219.9935,51.1518)">
      <svg width="11.330000000000005" height="102.488" viewBox="44.335,-1.2440000000000002,11.330000000000005,102.488">
        <defs>
          <linearGradient x1="0" y1="0.5" x2="1" y2="0.5" id="linearGradientSkjj4fqgb1g">
            <stop offset="0%" stop-color="#e5d80e"></stop>
            <stop offset="100%" stop-color="#e5d80e"></stop>
          </linearGradient>
        </defs>
        <g>
          <path d="M50,3.756c0,0,0.013,0.361,0.036,1.039c0.021,0.677,0.065,1.671,0.093,2.936c0.058,2.529,0.177,6.142,0.252,10.477    c0.035,2.168,0.073,4.517,0.114,7c0.028,2.483,0.06,5.104,0.09,7.812c0.019,2.71,0.037,5.51,0.058,8.354    c0.008,2.846,0.017,5.735,0.022,8.626c-0.007,2.891-0.015,5.781-0.022,8.626c0,2.844-0.039,5.646-0.057,8.354    c-0.046,5.42-0.118,10.477-0.203,14.812c-0.075,4.336-0.196,7.949-0.253,10.479c-0.028,1.264-0.073,2.258-0.094,2.934    C50.012,95.883,50,96.244,50,96.244s-0.013-0.361-0.036-1.039c-0.021-0.676-0.065-1.67-0.093-2.934    c-0.058-2.529-0.179-6.145-0.253-10.479c-0.086-4.336-0.157-9.394-0.204-14.812c-0.017-2.709-0.056-5.51-0.057-8.354    C49.35,55.78,49.342,52.891,49.335,50c0.008-2.891,0.016-5.78,0.023-8.626c0.02-2.845,0.039-5.645,0.058-8.354    c0.031-2.709,0.061-5.329,0.09-7.812c0.04-2.483,0.078-4.832,0.114-7c0.075-4.335,0.194-7.948,0.252-10.477    c0.027-1.265,0.072-2.258,0.092-2.936C49.987,4.117,50,3.756,50,3.756z" fill="url('#linearGradientSkjj4fqgb1g')" stroke="none" style=""></path>
        </g>
      </svg>
    </g>
    <g transform="matrix(1.7617,0,0,1.7617,191.8058,124.1228)">
      <svg width="43.196999999999996" height="43.196" viewBox="28.418,40.406000000000006,43.196999999999996,43.196">
        <defs>
          <linearGradient x1="0" y1="0.5" x2="1" y2="0.5" id="linearGradientSkjj4fqgb1m">
            <stop offset="0%" stop-color="#e5d80e"></stop>
            <stop offset="100%" stop-color="#e5d80e"></stop>
          </linearGradient>
        </defs>
        <g>
          <path d="M66.615,78.602c0,0-0.535-0.5-1.473-1.379c-0.928-0.889-2.271-2.139-3.85-3.672c-1.576-1.537-3.438-3.309-5.391-5.244    s-4.041-4-6.125-6.062c-2.063-2.086-4.128-4.172-6.062-6.127c-1.938-1.953-3.707-3.812-5.244-5.39    c-1.534-1.578-2.783-2.92-3.672-3.848c-0.878-0.938-1.38-1.474-1.38-1.474s0.535,0.502,1.473,1.38    c0.927,0.889,2.271,2.138,3.849,3.673c1.575,1.535,3.436,3.308,5.389,5.242c1.955,1.937,4.04,4,6.126,6.063    c2.062,2.084,4.127,4.17,6.062,6.125c1.938,1.955,3.707,3.813,5.242,5.39c1.535,1.577,2.785,2.922,3.674,3.85    C66.113,78.066,66.615,78.602,66.615,78.602z" fill="url('#linearGradientSkjj4fqgb1m')" stroke="none" style=""></path>
        </g>
      </svg>
    </g>
    <g transform="matrix(1.7617,0,0,1.7617,184.8058,132.1228)">
      <svg width="43.19500000000001" height="43.19799999999999" viewBox="24.112,44.71400000000001,43.19500000000001,43.19799999999999">
        <defs>
          <linearGradient x1="0" y1="0.5" x2="1" y2="0.5" id="linearGradientSkjj4fqgb1s">
            <stop offset="0%" stop-color="#e5d80e"></stop>
            <stop offset="100%" stop-color="#e5d80e"></stop>
          </linearGradient>
        </defs>
        <g>
          <path d="M29.112,82.912c0,0,0.502-0.535,1.381-1.473c0.888-0.93,2.138-2.271,3.672-3.85c1.536-1.574,3.308-3.436,5.243-5.391    c1.935-1.955,3.999-4.039,6.062-6.125c2.086-2.064,4.171-4.131,6.125-6.062c1.951-1.938,3.812-3.707,5.389-5.244    c1.578-1.535,2.922-2.783,3.85-3.672c0.938-0.879,1.473-1.381,1.473-1.381s-0.502,0.537-1.381,1.475    c-0.889,0.927-2.137,2.271-3.672,3.849c-1.537,1.573-3.307,3.437-5.242,5.389c-1.936,1.955-4,4.041-6.064,6.125    c-2.085,2.064-4.171,4.128-6.126,6.062c-1.954,1.936-3.813,3.706-5.39,5.243c-1.577,1.533-2.921,2.783-3.848,3.673    C29.648,82.41,29.112,82.912,29.112,82.912z" fill="url('#linearGradientSkjj4fqgb1s')" stroke="none" style=""></path>
        </g>
      </svg>
    </g>
    <g transform="matrix(1.1743,0,0,1.1743,447.0476,87.3448)">
      <svg width="246.9" height="177" style="overflow: visible;">
        <defs>
          <linearGradient x1="0" y1="0.5" x2="1" y2="0.5" id="linearGradientSkjj4fqgb20">
            <stop offset="0%" stop-color="#1761a0"></stop>
            <stop offset="100%" stop-color="#1761a0"></stop>
          </linearGradient>
        </defs>
        <g transform="matrix(1,0,0,1,0,87.75)">
          <path d="M 45-1L 45 0L 7 0L 7-70L 15.3-70L 15.3-1L 45-1ZM 95.4 0L 92.30000000000001 0Q 85.50000000000001 0  83.00000000000001-2.6L 83.00000000000001-2.6Q 80.70000000000002-4.8  80.70000000000002-6.4L 80.70000000000002-6.4L 80.70000000000002-8.5Q 75.80000000000001 0.4  65.00000000000001 0.4L 65.00000000000001 0.4Q 52.40000000000001 0.4  50.70000000000002-11L 50.70000000000002-11Q 50.500000000000014-12.2  50.500000000000014-13.45Q 50.500000000000014-14.7  50.90000000000001-16.2Q 51.30000000000001-17.7  53.20000000000002-19.5L 53.20000000000002-19.5Q 57.000000000000014-23.1  69.9-23.9L 69.9-23.9Q 73.10000000000002-24.2  75.80000000000001-24.2Q 78.50000000000001-24.2  80.70000000000002-24L 80.70000000000002-24L 80.70000000000002-40.6Q 80.50000000000001-40.7  80.70000000000002-41.55Q 80.9-42.4  80.35000000000002-43.75Q 79.80000000000001-45.1  78.9-46.4Q 78.00000000000001-47.7  75.70000000000002-48.65Q 73.4-49.6  69.70000000000002-49.6Q 66.00000000000001-49.6  61.05000000000001-48.25Q 56.100000000000016-46.9  53.80000000000001-45.6L 53.80000000000001-45.6L 53.40000000000001-46.3Q 62.30000000000001-50.4  71.50000000000001-50.4L 71.50000000000001-50.4Q 81.80000000000001-50.4  85.10000000000002-46.7L 85.10000000000002-46.7Q 87.70000000000002-43.8  87.70000000000002-40.6L 87.70000000000002-40.6L 87.70000000000002-7.1Q 87.70000000000002-4.2  88.85000000000002-2.65Q 90.00000000000001-1.1  91.20000000000002-1L 91.20000000000002-1L 92.30000000000001-0.8L 95.4-0.8L 95.4 0ZM 66.60000000000002-0.4L 66.60000000000002-0.4Q 71.9-0.4  76.15-4.05Q 80.4-7.7  80.70000000000002-11.1L 80.70000000000002-11.1L 80.70000000000002-23.2Q 78.00000000000001-23.4  75.25000000000001-23.4Q 72.50000000000001-23.4  69.80000000000001-23.1L 69.80000000000001-23.1Q 62.20000000000002-22.2  59.90000000000001-19.7Q 57.600000000000016-17.2  57.600000000000016-12.8L 57.600000000000016-12.8Q 57.600000000000016-12  57.70000000000002-11L 57.70000000000002-11Q 58.600000000000016-0.4  66.60000000000002-0.4ZM 124.30000000000001-49.6L 124.30000000000001-49.6Q 117.20000000000002-49.6  112.45000000000002-42.8Q 107.70000000000002-36  107.70000000000002-24Q 107.70000000000002-12  112.05000000000003-6.2Q 116.40000000000002-0.4  123.50000000000003-0.4L 123.50000000000003-0.4Q 132.40000000000003-0.4  139.3-3.4L 139.3-3.4L 139.60000000000002-2.7Q 132.50000000000003 0.4  123.00000000000003 0.4Q 113.50000000000003 0.4  107.20000000000002-5.6Q 100.90000000000002-11.6  100.90000000000002-24.1Q 100.90000000000002-36.6  107.50000000000001-43.5Q 114.10000000000002-50.4  124.30000000000001-50.4L 124.30000000000001-50.4Q 130.00000000000003-50.4  134.85000000000002-47.8Q 139.70000000000002-45.2  142.00000000000003-39.9L 142.00000000000003-39.9L 135.60000000000002-39.9Q 134.10000000000002-44.8  131.05-47.2Q 128.00000000000003-49.6  124.30000000000001-49.6ZM 192.4 0L 189.3 0Q 182.5 0  180-2.6L 180-2.6Q 177.7-4.8  177.7-6.4L 177.7-6.4L 177.7-8.5Q 172.8 0.4  162 0.4L 162 0.4Q 149.4 0.4  147.7-11L 147.7-11Q 147.5-12.2  147.5-13.45Q 147.5-14.7  147.9-16.2Q 148.3-17.7  150.2-19.5L 150.2-19.5Q 154-23.1  166.9-23.9L 166.9-23.9Q 170.1-24.2  172.8-24.2Q 175.5-24.2  177.7-24L 177.7-24L 177.7-40.6Q 177.5-40.7  177.7-41.55Q 177.9-42.4  177.35-43.75Q 176.8-45.1  175.9-46.4Q 175-47.7  172.7-48.65Q 170.4-49.6  166.7-49.6Q 163-49.6  158.05-48.25Q 153.1-46.9  150.8-45.6L 150.8-45.6L 150.4-46.3Q 159.3-50.4  168.5-50.4L 168.5-50.4Q 178.8-50.4  182.1-46.7L 182.1-46.7Q 184.7-43.8  184.7-40.6L 184.7-40.6L 184.7-7.1Q 184.7-4.2  185.85-2.65Q 187-1.1  188.2-1L 188.2-1L 189.3-0.8L 192.4-0.8L 192.4 0ZM 163.6-0.4L 163.6-0.4Q 168.9-0.4  173.15-4.05Q 177.4-7.7  177.7-11.1L 177.7-11.1L 177.7-23.2Q 175-23.4  172.25-23.4Q 169.5-23.4  166.8-23.1L 166.8-23.1Q 159.2-22.2  156.9-19.7Q 154.6-17.2  154.6-12.8L 154.6-12.8Q 154.6-12  154.7-11L 154.7-11Q 155.6-0.4  163.6-0.4ZM 198.9 25L 198.9-50L 205.9-50L 205.9-37.6Q 207.6-42.2  212.20000000000002-46.3Q 216.8-50.4  222.6-50.4L 222.6-50.4Q 242.9-50.4  242.9-26.6L 242.9-26.6Q 242.9 0.4  216.70000000000002 0.4L 216.70000000000002 0.4Q 212 0.4  205.9-1.8L 205.9-1.8L 205.9 25L 198.9 25ZM 222.5-49.6L 222.5-49.6Q 216.3-49.6  211.3-44.25Q 206.3-38.9  205.9-34.6L 205.9-34.6L 205.9-2.7Q 212-0.4  216.6-0.4L 216.6-0.4Q 235.9-0.4  235.9-26.7L 235.9-26.7Q 235.9-49.6  222.5-49.6Z" data-textpath="Lacap" data-text-anchor="middle" data-font-size="100" data-letterspacing="0" data-side="left" data-offset="0.5" data-dx="0" data-dy="0" data-xmlspace="preserve" data-href="" data-font="Italiana" data-font-src="/Content/clientfonts/italiana.woff" data-font-scale="contain" transform="translate(0,0)" data-x="0" data-y="0" fill="url('#linearGradientSkjj4fqgb20')"></path>
        </g>
      </svg>
    </g>
  </g>
</svg>